{
  "version": "2.0",
  "software": {
    "name": "strawberryfields",
    "version": "3.0.0"
  },
  "protocols": [
    "activitypub"
  ],
  "services": {
    "inbound": [],
    "outbound": []
  },
  "openRegistrations": false,
  "usage": {
    "users": {
      "total": 0,
      "activeHalfyear": 0,
      "activeMonth": 0
    },
    "localPosts": 0,
    "localComments": 0
  },
  "metadata": {
    "nodeName": "StrawberryFields Lumen",
    "nodeDescription": "ActivityPub, Fediverse, and Nothing is real",
    "themeColor": "#acefed"
  }
}
